ACT6/ACT6DF.vcd
$date
	Mon Oct 20 17:48:58 2025
$end
$version
	Icarus Verilog
$end
$timescale
	1s
$end
$scope module ACT6_DF_tb $end
$var wire 1 ! S $end
$var wire 1 " D $end
$var reg 1 # X $end
$var reg 1 $ Y $end
$var reg 1 % Z $end
$scope module Instance0 $end
$var wire 1 " D $end
$var wire 1 ! S $end
$var wire 1 # X $end
$var wire 1 $ Y $end
$var wire 1 % Z $end
$upscope $end
$upscope $end
$enddefinitions $end
$comment Show the parameter values. $end
$dumpall
$end
#0
$dumpvars
0%
0$
0#
0"
0!
$end
#1
1"
1!
1$
#2
0!
0$
1#
#3
0"
1$
#4
1!
1"
0$
0#
1%
#5
0"
1$
#6
0!
0$
1#
#7
1!
1"
1$
